{
    "data": {
    	"company":[
    		{
    			"name":"长城人寿保险股份有限公司 >"
    		},
    		{
    			"name":"长城保险北京分公司 >"
    		},
    		{
    			"name":"长城保险北京分公司北京 >"
    		},
    		{
    			"name":"险北京分公司北京市区"
    		}   		
    	],
    	"number":[
    		{
    		"icon":"assets/img/yujing.png",
    		"text":"预警总量",
    		"img":"assets/img/hengxian.png",
    		"imgBackground":"#FF3F3F",
    		"num":189,
    		"numBackground":"#DA1B1B"
    		},
    		{
    		"icon":"assets/img/weichuli.png",
    		"text":"新增数量",
    		"img":"assets/img/tanhao.png",
    		"imgBackground":"#FF6C6C",
    		"num":532,
    		"numBackground":"#FF3F3F"
    		},
    		{
    		"icon":"assets/img/chulizhong.png",
    		"text":"处理中数量",
    		"img":"assets/img/zhuan.png",
    		"imgBackground":"#FF9494",
    		"num":772,
    		"numBackground":"#FF7171"
    		},
    		{
    		"icon":"assets/img/7tianweichuli.png",
    		"text":"7天未处理",
    		"img":"assets/img/tanhao_hui.png",
    		"imgBackground":"#C4C4C4",
    		"num":4,
    		"numBackground":"#AFAFAF"
    		},
    		{
    		"icon":"assets/img/jiean.png",
    		"text":"结案",
    		"img":"assets/img/duihao.png",
    		"imgBackground":"#4FCD69",
    		"num":56,
    		"numBackground":"#23C044"
    		}
    	],
    	"degree":[
    		{
    		"icon":"assets/img/xin.png",
    		"text":"总体满意度",
    		"thisPercentage":"92.1%",
    		"lastPercentage":"80.6%",
    		"thisYear":"当年",
    		"lastYear":"去年",
    		"thisColorDown":"#DDE4E8",
    		"thisColorUp":"#236DC0",
    		"lastColorDown":"#F0F6F3",
    		"lastColorUp":"#23C044"
    		},
    		{
    		"icon":"assets/img/NPS.png",
    		"text":"NPS净推荐值",
    		"thisPercentage":"39.2%",
    		"lastPercentage":"80.6%",
    		"thisYear":"当年",
    		"lastYear":"去年",
    		"thisColorDown":"#DDE4E8",
    		"thisColorUp":"#236DC0",
    		"lastColorDown":"#F0F6F3",
    		"lastColorUp":"#23C044"
    		},
    		{
    		"icon":"assets/img/xing.png",
    		"text":"忠诚度",
    		"thisPercentage":"56.0%",
    		"lastPercentage":"12.6%",
    		"thisYear":"当年",
    		"lastYear":"去年",
    		"thisColorDown":"#DDE4E8",
    		"thisColorUp":"#236DC0",
    		"lastColorDown":"#F0F6F3",
    		"lastColorUp":"#23C044"
    		},
    		{
    		"icon":"assets/img/shangsheng.png",
    		"text":"其它指标",
    		"thisPercentage":"40.0%",
    		"lastPercentage":"80.6%",
    		"thisYear":"当年",
    		"lastYear":"去年",
    		"thisColorDown":"#DDE4E8",
    		"thisColorUp":"#236DC0",
    		"lastColorDown":"#F0F6F3",
    		"lastColorUp":"#23C044"
    		}
    	]
    },
    "success": true,
    "message": ""
}